{
  "profiles": {
    "NekorhiteUpdater": {
      "commandName": "Project",
      "applicationUrl": "http://localhost:5000/",
      "environmentVariables": {
        "DOTNET_ENVIRONMENT": "Development"
      }
    }
  }
}